Removed Pin From Net: NetName=NetJ2_7 Pin=J3-1
Added Pin To Net: NetName=NetJ2_7 Pin=J3-2
Added Pin To Net: NetName=NetJ3_1 Pin=J3-1
Added Pin To Net: NetName=NetJ3_1 Pin=R7-2
Added Net: Name=NetJ3_1
