Removed Pin From Net: NetName=EIO_CLKOUT_P Pin=J4-1
Removed Pin From Net: NetName=EIO_CLKOUT_N Pin=J4-2
Removed Pin From Net: NetName=NetJ2_2 Pin=J4-5
Removed Pin From Net: NetName=NetJ2_3 Pin=J4-6
Removed Pin From Net: NetName=NetJ2_4 Pin=J4-7
Removed Pin From Net: NetName=NetJ2_5 Pin=J4-8
Removed Pin From Net: NetName=NetJ2_6 Pin=J4-9
Added Pin To Net: NetName=EIO_CLKOUT_N Pin=J4-1
Added Pin To Net: NetName=EIO_CLKOUT_P Pin=J4-2
Added Pin To Net: NetName=NetJ2_4 Pin=J4-3
Added Pin To Net: NetName=NetJ2_5 Pin=J4-4
Added Pin To Net: NetName=NetJ2_6 Pin=J4-5
Added Pin To Net: NetName=NetJ2_2 Pin=J4-7
Added Pin To Net: NetName=NetJ2_3 Pin=J4-8
Added Pin To Net: NetName=NetC8_2 Pin=J4-12
Added Member To Class: ClassName=pcie2sfp Member=Component C3 10uF
Added Member To Class: ClassName=pcie2sfp Member=Component J2 SFP+
