G04*
G04 #@! TF.GenerationSoftware,Altium Limited,Altium Designer,19.0.12 (326)*
G04*
G04 Layer_Physical_Order=2*
G04 Layer_Color=16711680*
%FSLAX44Y44*%
%MOMM*%
G71*
G01*
G75*
%ADD10R,0.7000X4.2000*%
%ADD13R,1.0000X0.9000*%
%ADD15C,0.5080*%
%ADD16C,0.4000*%
%ADD17C,0.7000*%
%ADD18C,0.4318*%
%ADD19C,0.8000*%
%ADD21C,0.5000*%
%ADD22C,1.6500*%
%ADD23C,2.0000*%
%ADD24R,1.5000X1.5000*%
%ADD25C,1.5000*%
%ADD26C,1.2700*%
%ADD27R,1.2700X1.2700*%
%ADD28R,1.0000X1.7500*%
%ADD29R,1.2500X1.8000*%
%ADD30R,0.8500X1.0000*%
%ADD31R,1.2700X3.6800*%
%ADD32R,1.8000X1.2500*%
%ADD33R,1.0000X0.8500*%
%ADD34R,1.0000X0.9500*%
%ADD35R,1.4000X1.0500*%
G36*
X1794510Y956310D02*
X1689100Y850900D01*
Y715010D01*
X1513840D01*
Y915670D01*
X1456690Y972820D01*
Y1103630D01*
X1404620Y1155700D01*
Y1219200D01*
X1794510D01*
Y956310D01*
D02*
G37*
%LPC*%
G36*
X1730355Y1209000D02*
X1708275D01*
Y1161920D01*
X1730355D01*
Y1209000D01*
D02*
G37*
G36*
X1640354D02*
X1628275D01*
Y1161920D01*
X1640354D01*
Y1209000D01*
D02*
G37*
G36*
X1590355D02*
X1578275D01*
Y1161920D01*
X1590355D01*
Y1209000D01*
D02*
G37*
G36*
X1570354D02*
X1548275D01*
Y1161920D01*
X1570354D01*
Y1209000D01*
D02*
G37*
G36*
X1530354D02*
X1508275D01*
Y1161920D01*
X1530354D01*
Y1209000D01*
D02*
G37*
G36*
X1490355D02*
X1468275D01*
Y1161920D01*
X1490355D01*
Y1209000D01*
D02*
G37*
G36*
X1460354D02*
X1438275D01*
Y1161920D01*
X1460354D01*
Y1209000D01*
D02*
G37*
G36*
X1620354D02*
X1598275D01*
Y1161920D01*
X1599523D01*
Y1153740D01*
X1599888Y1151906D01*
X1600927Y1150352D01*
X1611939Y1139340D01*
X1613494Y1138301D01*
X1615327Y1137936D01*
X1623360D01*
X1624340Y1136660D01*
X1626197Y1135235D01*
X1628359Y1134339D01*
X1630680Y1134033D01*
X1633001Y1134339D01*
X1635163Y1135235D01*
X1637020Y1136660D01*
X1638445Y1138517D01*
X1639341Y1140679D01*
X1639647Y1143000D01*
X1639341Y1145321D01*
X1638445Y1147483D01*
X1637020Y1149340D01*
X1635163Y1150765D01*
X1633001Y1151661D01*
X1630680Y1151967D01*
X1629630Y1151829D01*
X1628732Y1152727D01*
X1628870Y1153776D01*
X1628565Y1156097D01*
X1627669Y1158260D01*
X1626244Y1160117D01*
X1624387Y1161542D01*
X1622224Y1162438D01*
X1620447Y1162672D01*
Y1184119D01*
X1620354Y1184582D01*
Y1209000D01*
D02*
G37*
G36*
X1508440Y1159370D02*
X1493360D01*
Y1136790D01*
X1499731D01*
X1500305Y1136215D01*
X1502303Y1134881D01*
X1504660Y1134412D01*
X1509212D01*
X1510110Y1133514D01*
X1510110Y1132775D01*
X1508855Y1132740D01*
X1508842Y1132740D01*
X1507692Y1132740D01*
X1507692Y1132740D01*
X1507686Y1132740D01*
X1485775D01*
Y1124489D01*
X1484156Y1122870D01*
X1483107Y1121504D01*
X1482448Y1119913D01*
X1482224Y1118205D01*
Y1111110D01*
X1469710D01*
Y1097859D01*
X1468406Y1096554D01*
X1467357Y1095188D01*
X1466698Y1093597D01*
X1466474Y1091890D01*
Y1087040D01*
X1466030D01*
Y1071960D01*
X1479610D01*
Y1079322D01*
X1479666Y1079750D01*
Y1088530D01*
X1482224D01*
Y1087040D01*
X1482030D01*
Y1071960D01*
X1482224D01*
Y1065390D01*
X1469470D01*
Y1052139D01*
X1468406Y1051074D01*
X1467357Y1049708D01*
X1466698Y1048117D01*
X1466474Y1046410D01*
Y1041320D01*
X1466030D01*
Y1026240D01*
X1479610D01*
Y1033602D01*
X1479666Y1034030D01*
Y1042810D01*
X1482224D01*
Y1041320D01*
X1482030D01*
Y1026240D01*
X1482224D01*
Y1010840D01*
X1481650D01*
Y995760D01*
X1495230D01*
Y1006964D01*
X1495416Y1008380D01*
Y1026240D01*
X1495610D01*
Y1041320D01*
X1495416D01*
Y1071960D01*
X1495610D01*
Y1087040D01*
X1495416D01*
Y1115160D01*
X1508855D01*
Y1116495D01*
X1510110Y1116530D01*
Y1116530D01*
X1525190D01*
Y1116974D01*
X1526620D01*
Y1116280D01*
X1532371D01*
X1533686Y1114965D01*
X1533200Y1113792D01*
X1528911D01*
X1527319Y1114856D01*
X1525337Y1115250D01*
X1523355Y1114856D01*
X1521675Y1113733D01*
X1520552Y1112053D01*
X1520158Y1110070D01*
X1520552Y1108088D01*
X1521675Y1106408D01*
X1523003Y1105079D01*
X1522926Y1104542D01*
X1522554Y1103810D01*
X1514790D01*
Y1111110D01*
X1499710D01*
Y1088530D01*
X1500774D01*
Y1085850D01*
X1498600D01*
Y1068070D01*
X1516380D01*
Y1085850D01*
X1513966D01*
Y1088530D01*
X1514790D01*
Y1094552D01*
X1533420D01*
X1539299Y1088673D01*
X1539664Y1088126D01*
X1547399Y1080392D01*
X1547282Y1078712D01*
X1546001Y1077729D01*
X1544352Y1075579D01*
X1543315Y1073076D01*
X1542961Y1070390D01*
X1543315Y1067704D01*
X1544352Y1065201D01*
X1546001Y1063051D01*
X1548150Y1061402D01*
X1550654Y1060365D01*
X1553340Y1060011D01*
X1556026Y1060365D01*
X1558529Y1061402D01*
X1560308Y1062766D01*
X1561578Y1062262D01*
Y1056565D01*
X1561578Y1056565D01*
X1561930Y1054794D01*
X1562934Y1053292D01*
X1570779Y1045447D01*
X1570779Y1045447D01*
X1572281Y1044443D01*
X1574052Y1044091D01*
X1596356D01*
X1597670Y1042380D01*
X1599527Y1040955D01*
X1601689Y1040059D01*
X1604010Y1039753D01*
X1606331Y1040059D01*
X1608493Y1040955D01*
X1610350Y1042380D01*
X1611775Y1044237D01*
X1612671Y1046399D01*
X1612977Y1048720D01*
X1612671Y1051041D01*
X1611775Y1053203D01*
X1610350Y1055060D01*
X1608493Y1056485D01*
X1606331Y1057381D01*
X1604010Y1057687D01*
X1601689Y1057381D01*
X1599527Y1056485D01*
X1597670Y1055060D01*
X1596356Y1053349D01*
X1575969D01*
X1570836Y1058482D01*
Y1067090D01*
X1582888D01*
X1583101Y1066947D01*
X1584092Y1066750D01*
X1587055D01*
X1588046Y1066947D01*
X1588589Y1067310D01*
X1602135D01*
X1602452Y1067373D01*
X1602775Y1067391D01*
X1602943Y1067471D01*
X1603126Y1067507D01*
X1603395Y1067687D01*
X1603687Y1067827D01*
X1603783Y1067933D01*
X1604420Y1067507D01*
X1605411Y1067310D01*
X1618643D01*
X1619186Y1066947D01*
X1620177Y1066750D01*
X1623140D01*
X1624131Y1066947D01*
X1624674Y1067310D01*
X1637745D01*
X1638228Y1067406D01*
X1638712Y1067498D01*
X1639031Y1067626D01*
X1639308Y1067702D01*
X1639315Y1067704D01*
X1640352Y1065201D01*
X1642001Y1063051D01*
X1644151Y1061402D01*
X1646654Y1060365D01*
X1649340Y1060011D01*
X1652026Y1060365D01*
X1654529Y1061402D01*
X1656679Y1063051D01*
X1658328Y1065201D01*
X1659365Y1067704D01*
X1659719Y1070390D01*
X1659365Y1073076D01*
X1658328Y1075579D01*
X1656679Y1077729D01*
X1654529Y1079378D01*
X1654356Y1079450D01*
X1654608Y1080720D01*
X1658620D01*
X1659611Y1080917D01*
X1660451Y1081479D01*
X1661013Y1082319D01*
X1661210Y1083310D01*
Y1099820D01*
X1661013Y1100811D01*
X1660474Y1101618D01*
X1660262Y1102800D01*
X1660262Y1102800D01*
Y1111745D01*
X1660381Y1112340D01*
Y1113206D01*
X1680089Y1132915D01*
X1681261Y1133069D01*
X1683423Y1133965D01*
X1685280Y1135390D01*
X1686705Y1137247D01*
X1687601Y1139409D01*
X1687907Y1141730D01*
X1687601Y1144051D01*
X1686705Y1146213D01*
X1685280Y1148070D01*
X1683423Y1149495D01*
X1681261Y1150391D01*
X1678940Y1150697D01*
X1676619Y1150391D01*
X1674457Y1149495D01*
X1672600Y1148070D01*
X1671175Y1146213D01*
X1670279Y1144051D01*
X1669973Y1141730D01*
X1670149Y1140393D01*
X1649868Y1120112D01*
X1648711Y1118380D01*
X1641183D01*
Y1117186D01*
X1604907D01*
X1596269Y1125824D01*
X1594902Y1126873D01*
X1593312Y1127532D01*
X1591604Y1127756D01*
X1589152D01*
X1587000Y1129909D01*
Y1136160D01*
X1567920D01*
Y1134138D01*
X1567868Y1134132D01*
X1566277Y1133473D01*
X1564911Y1132424D01*
X1559256Y1126769D01*
X1558207Y1125403D01*
X1557548Y1123812D01*
X1557324Y1122104D01*
Y1118075D01*
X1555685Y1116436D01*
X1550872D01*
X1541700Y1125609D01*
Y1130860D01*
X1526620D01*
Y1130166D01*
X1525190D01*
Y1130610D01*
X1510110D01*
Y1130610D01*
X1508855Y1130645D01*
X1508855Y1132495D01*
X1510110Y1132530D01*
X1510123Y1132530D01*
X1511272Y1132530D01*
X1511272Y1132530D01*
X1511279Y1132530D01*
X1525190D01*
Y1146610D01*
X1517245D01*
X1516650Y1146728D01*
X1508440D01*
Y1159370D01*
D02*
G37*
G36*
X1770354Y1209000D02*
X1738275D01*
Y1186055D01*
X1738156Y1185460D01*
Y1157555D01*
X1732461Y1151860D01*
X1723390D01*
Y1109980D01*
X1741170D01*
Y1143151D01*
X1748669Y1150650D01*
X1750004Y1152648D01*
X1750473Y1155005D01*
Y1161920D01*
X1770354D01*
Y1209000D01*
D02*
G37*
G36*
X1700354D02*
X1658275D01*
Y1161920D01*
X1688156D01*
Y1155536D01*
X1688625Y1153179D01*
X1689960Y1151181D01*
X1697990Y1143151D01*
Y1109980D01*
X1715770D01*
Y1151860D01*
X1706699D01*
X1700473Y1158086D01*
Y1185460D01*
X1700354Y1186055D01*
Y1209000D01*
D02*
G37*
G36*
X1757680Y1043907D02*
X1755059Y1043562D01*
X1752617Y1042550D01*
X1750519Y1040941D01*
X1748910Y1038843D01*
X1747898Y1036401D01*
X1747553Y1033780D01*
X1747898Y1031159D01*
X1748910Y1028717D01*
X1750519Y1026619D01*
X1752617Y1025010D01*
X1755059Y1023998D01*
X1757680Y1023653D01*
X1760301Y1023998D01*
X1762743Y1025010D01*
X1764841Y1026619D01*
X1766450Y1028717D01*
X1767462Y1031159D01*
X1767807Y1033780D01*
X1767462Y1036401D01*
X1766450Y1038843D01*
X1764841Y1040941D01*
X1762743Y1042550D01*
X1760301Y1043562D01*
X1757680Y1043907D01*
D02*
G37*
G36*
X1665670Y1054900D02*
X1663688Y1054506D01*
X1662008Y1053383D01*
X1647337Y1038712D01*
X1646215Y1037032D01*
X1645820Y1035050D01*
Y1024501D01*
X1644660Y1023610D01*
X1643235Y1021753D01*
X1642339Y1019591D01*
X1642033Y1017270D01*
X1642339Y1014949D01*
X1643235Y1012787D01*
X1644660Y1010930D01*
X1645500Y1010285D01*
Y1009015D01*
X1644660Y1008370D01*
X1643235Y1006513D01*
X1642339Y1004351D01*
X1642033Y1002030D01*
X1642339Y999709D01*
X1642393Y999578D01*
X1641479Y998465D01*
X1640578Y998644D01*
X1640578Y998644D01*
X1639819D01*
X1639715Y998893D01*
X1638290Y1000750D01*
X1636433Y1002175D01*
X1634271Y1003071D01*
X1631950Y1003377D01*
X1629629Y1003071D01*
X1627467Y1002175D01*
X1625610Y1000750D01*
X1624185Y998893D01*
X1623289Y996731D01*
X1622983Y994410D01*
X1623161Y993061D01*
X1621970Y992374D01*
X1621733Y992555D01*
X1619571Y993451D01*
X1617250Y993757D01*
X1614929Y993451D01*
X1612767Y992555D01*
X1610910Y991130D01*
X1609485Y989273D01*
X1608589Y987111D01*
X1608283Y984790D01*
X1608589Y982469D01*
X1609485Y980307D01*
X1610910Y978450D01*
X1612767Y977025D01*
X1614929Y976129D01*
X1617250Y975823D01*
X1619571Y976129D01*
X1621733Y977025D01*
X1623590Y978450D01*
X1623929Y978891D01*
X1639908D01*
X1666682Y952117D01*
X1666682Y952117D01*
X1668183Y951113D01*
X1669955Y950761D01*
X1729424D01*
X1729425Y950761D01*
X1731196Y951113D01*
X1732698Y952117D01*
X1744511Y963930D01*
X1755744D01*
Y981710D01*
X1753451D01*
Y984320D01*
X1754395D01*
Y995684D01*
X1762860D01*
Y990490D01*
X1780440D01*
Y1013570D01*
X1762860D01*
Y1008876D01*
X1754942D01*
X1754395Y1009424D01*
Y1013900D01*
X1748416D01*
X1747000Y1014086D01*
X1746250D01*
X1744834Y1013900D01*
X1739315D01*
Y1013896D01*
X1729660D01*
Y1013900D01*
X1714580D01*
Y1013706D01*
X1705530D01*
Y1014280D01*
X1699399D01*
X1698376Y1015303D01*
Y1015485D01*
X1698645Y1015837D01*
X1699541Y1017999D01*
X1699847Y1020320D01*
X1699564Y1022470D01*
X1699734Y1022999D01*
X1700229Y1023740D01*
X1716920D01*
Y1040156D01*
X1718093Y1040642D01*
X1722479Y1036256D01*
X1722153Y1033780D01*
X1722498Y1031159D01*
X1723510Y1028717D01*
X1725119Y1026619D01*
X1727217Y1025010D01*
X1729659Y1023998D01*
X1732280Y1023653D01*
X1734901Y1023998D01*
X1737343Y1025010D01*
X1739441Y1026619D01*
X1741050Y1028717D01*
X1742062Y1031159D01*
X1742407Y1033780D01*
X1742062Y1036401D01*
X1741050Y1038843D01*
X1739441Y1040941D01*
X1737343Y1042550D01*
X1734901Y1043562D01*
X1732280Y1043907D01*
X1729804Y1043581D01*
X1720002Y1053383D01*
X1718322Y1054506D01*
X1716340Y1054900D01*
X1665671D01*
X1665670Y1054900D01*
D02*
G37*
G36*
X1514550Y1065390D02*
X1499470D01*
Y1042810D01*
X1500534D01*
Y1040130D01*
X1498360D01*
Y1022350D01*
X1506811D01*
X1513161Y1016000D01*
X1512635Y1014730D01*
X1498600D01*
Y996950D01*
X1500774D01*
Y994270D01*
X1499710D01*
Y971690D01*
X1514790D01*
Y994270D01*
X1513966D01*
Y996950D01*
X1516380D01*
Y999054D01*
X1539269D01*
X1540729Y998449D01*
X1543050Y998143D01*
X1545371Y998449D01*
X1547533Y999345D01*
X1549390Y1000770D01*
X1550815Y1002627D01*
X1551711Y1004789D01*
X1552017Y1007110D01*
X1551711Y1009431D01*
X1550815Y1011593D01*
X1549390Y1013450D01*
X1547533Y1014875D01*
X1545371Y1015771D01*
X1543050Y1016077D01*
X1540729Y1015771D01*
X1538567Y1014875D01*
X1536710Y1013450D01*
X1535786Y1012246D01*
X1531812D01*
X1531250Y1013385D01*
X1531765Y1014057D01*
X1532661Y1016219D01*
X1532967Y1018540D01*
X1532661Y1020861D01*
X1531765Y1023023D01*
X1530340Y1024880D01*
X1528483Y1026305D01*
X1526321Y1027201D01*
X1524000Y1027507D01*
X1521679Y1027201D01*
X1520928Y1026890D01*
X1516140Y1031679D01*
Y1040130D01*
X1513726D01*
Y1042810D01*
X1514550D01*
Y1065390D01*
D02*
G37*
G36*
X1479230Y1010840D02*
X1465650D01*
Y995760D01*
X1466093D01*
Y991290D01*
X1466318Y989583D01*
X1466977Y987992D01*
X1468026Y986626D01*
X1469710Y984941D01*
Y971690D01*
X1484790D01*
Y994270D01*
X1479286D01*
Y1003050D01*
X1479230Y1003478D01*
Y1010840D01*
D02*
G37*
%LPD*%
G36*
X1658620Y1083310D02*
X1639701D01*
Y1074009D01*
X1639315Y1073076D01*
X1639020Y1070838D01*
X1638469Y1070192D01*
X1637745Y1069900D01*
X1623140D01*
Y1069340D01*
X1620177D01*
Y1069900D01*
X1605411D01*
Y1099820D01*
X1658620D01*
Y1083310D01*
D02*
G37*
G36*
X1586840Y1099820D02*
X1602740D01*
Y1070919D01*
X1602135Y1069900D01*
X1587055D01*
Y1069340D01*
X1584092D01*
Y1069680D01*
X1570836D01*
Y1074904D01*
X1570836Y1074904D01*
X1570484Y1076675D01*
X1569480Y1078177D01*
X1567180Y1080477D01*
Y1109274D01*
X1568584Y1110678D01*
X1569633Y1112044D01*
X1570292Y1113635D01*
X1570312Y1113790D01*
X1586840D01*
Y1099820D01*
D02*
G37*
G36*
X1696840Y1043820D02*
Y1028388D01*
X1695701Y1027826D01*
X1695363Y1028085D01*
X1693201Y1028981D01*
X1690880Y1029287D01*
X1688559Y1028981D01*
X1686397Y1028085D01*
X1684540Y1026660D01*
X1683115Y1024803D01*
X1682219Y1022641D01*
X1681913Y1020320D01*
X1682219Y1017999D01*
X1683115Y1015837D01*
X1684540Y1013980D01*
X1685183Y1013486D01*
Y1012571D01*
X1685408Y1010863D01*
X1686067Y1009273D01*
X1687115Y1007906D01*
X1690450Y1004571D01*
Y1000700D01*
X1695824D01*
X1697240Y1000514D01*
X1714580D01*
Y1000320D01*
X1729660D01*
Y1000704D01*
X1739315D01*
Y1000320D01*
X1744841D01*
X1746088Y999073D01*
X1745602Y997900D01*
X1739315D01*
Y984320D01*
X1740258D01*
Y981710D01*
X1737964D01*
Y970476D01*
X1732280Y964792D01*
X1731010Y965318D01*
Y981710D01*
X1728716D01*
Y984320D01*
X1729660D01*
Y997900D01*
X1714580D01*
Y984320D01*
X1715524D01*
Y981710D01*
X1713230D01*
Y970476D01*
X1709313Y966559D01*
X1706880D01*
Y981710D01*
X1704586D01*
Y984700D01*
X1705530D01*
Y998280D01*
X1690450D01*
Y984700D01*
X1691394D01*
Y981710D01*
X1689100D01*
Y977449D01*
X1672940D01*
X1664379Y986010D01*
Y993280D01*
X1664027Y995051D01*
X1663023Y996553D01*
X1663023Y996553D01*
X1659685Y999891D01*
X1659967Y1002030D01*
X1659661Y1004351D01*
X1658765Y1006513D01*
X1657340Y1008370D01*
X1656500Y1009015D01*
Y1010285D01*
X1657340Y1010930D01*
X1658765Y1012787D01*
X1659661Y1014949D01*
X1659967Y1017270D01*
X1659661Y1019591D01*
X1658765Y1021753D01*
X1657340Y1023610D01*
X1656180Y1024501D01*
Y1032905D01*
X1667816Y1044541D01*
X1695869D01*
X1696840Y1043820D01*
D02*
G37*
D10*
X1764315Y1185460D02*
D03*
X1754315D02*
D03*
X1744315D02*
D03*
X1734315D02*
D03*
X1724315D02*
D03*
X1714315D02*
D03*
X1704315D02*
D03*
X1694315D02*
D03*
X1684315D02*
D03*
X1674315D02*
D03*
X1664315D02*
D03*
X1634315D02*
D03*
X1624315D02*
D03*
X1614315D02*
D03*
X1604315D02*
D03*
X1594315D02*
D03*
X1584315D02*
D03*
X1574315D02*
D03*
X1564315D02*
D03*
X1554315D02*
D03*
X1544315D02*
D03*
X1534315D02*
D03*
X1524315D02*
D03*
X1514315D02*
D03*
X1504315D02*
D03*
X1494315D02*
D03*
X1484315D02*
D03*
X1474315D02*
D03*
X1464315D02*
D03*
X1454315D02*
D03*
X1444315D02*
D03*
X1434315D02*
D03*
D13*
X1517650Y1139570D02*
D03*
Y1123570D02*
D03*
D15*
X1651000Y1017270D02*
Y1035050D01*
X1665670Y1049721D02*
X1716340D01*
X1732280Y1033780D01*
X1651000Y1035050D02*
X1665670Y1049721D01*
X1525337Y1110070D02*
X1526795Y1108613D01*
X1536526D01*
X1545879Y1099260D01*
X1550997D01*
X1557168Y1093090D01*
X1557417D01*
D16*
X1574052Y1048720D02*
X1604010D01*
X1618520Y983520D02*
X1641825D01*
X1729425Y955390D02*
X1746855Y972820D01*
X1617250Y984790D02*
X1618520Y983520D01*
X1669955Y955390D02*
X1729425D01*
X1641825Y983520D02*
X1669955Y955390D01*
X1671023Y972820D02*
X1697990D01*
X1659750Y984093D02*
X1671023Y972820D01*
X1659750Y984093D02*
Y993280D01*
X1631950Y994410D02*
X1633220D01*
X1672664Y961930D02*
X1711230D01*
X1640578Y994015D02*
X1672664Y961930D01*
X1651000Y1002030D02*
X1659750Y993280D01*
X1633220Y994410D02*
X1633615Y994015D01*
X1640578D01*
X1711230Y961930D02*
X1722120Y972820D01*
X1535338Y1099181D02*
X1542937Y1091581D01*
X1507890Y1099181D02*
X1535338D01*
X1542937Y1091400D02*
X1551588Y1082749D01*
X1542937Y1091400D02*
Y1091581D01*
X1551588Y1082749D02*
X1558362D01*
X1566207Y1074904D01*
X1507370Y1099700D02*
X1507890Y1099181D01*
X1566207Y1056565D02*
X1574052Y1048720D01*
X1566207Y1056565D02*
Y1074904D01*
D17*
X1654223Y1115757D02*
X1678940Y1140474D01*
Y1141730D01*
X1654223Y1112340D02*
Y1115757D01*
X1652473Y1110590D02*
X1654223Y1112340D01*
X1650723Y1110590D02*
X1652473D01*
X1732280Y1130920D02*
Y1142970D01*
X1744315Y1155005D01*
Y1185460D01*
X1706880Y1130920D02*
Y1142970D01*
X1694315Y1155536D02*
X1706880Y1142970D01*
X1694315Y1155536D02*
Y1185460D01*
X1500900Y1144330D02*
Y1148080D01*
Y1144330D02*
X1504660Y1140570D01*
X1516650D01*
X1517650Y1139570D01*
D18*
X1630407Y1142727D02*
X1630680Y1143000D01*
X1615327Y1142727D02*
X1630407D01*
X1604315Y1153740D02*
X1615327Y1142727D01*
X1604315Y1153740D02*
Y1185460D01*
X1619904Y1153776D02*
Y1156044D01*
X1615656Y1160293D02*
Y1184119D01*
X1614315Y1185460D02*
X1615656Y1184119D01*
Y1160293D02*
X1619904Y1156044D01*
D19*
X1541778Y1007110D02*
X1543050D01*
X1488820Y1008380D02*
Y1033780D01*
X1507250Y1031240D02*
X1519051Y1019439D01*
X1523101D02*
X1524000Y1018540D01*
X1519051Y1019439D02*
X1523101D01*
X1540318Y1005650D02*
X1541778Y1007110D01*
X1507680Y1005650D02*
X1540318D01*
X1507490Y1005840D02*
X1507680Y1005650D01*
X1691779Y1012571D02*
X1697240Y1007110D01*
X1691779Y1012571D02*
Y1019421D01*
X1697240Y1007110D02*
X1722120D01*
X1746855Y972820D02*
Y991110D01*
X1722120Y972820D02*
Y991110D01*
X1697990Y972820D02*
Y991490D01*
X1690880Y1020320D02*
X1691779Y1019421D01*
X1771650Y1002030D02*
Y1004780D01*
X1548140Y1109840D02*
X1556667D01*
X1534410Y1123570D02*
X1548140Y1109840D01*
X1557417Y1109090D02*
X1557668D01*
X1556667Y1109840D02*
X1557417Y1109090D01*
X1534160Y1123570D02*
X1534410D01*
X1517650D02*
X1534160D01*
X1746250Y1007490D02*
X1747000D01*
X1752210Y1002280D01*
X1771400D01*
X1771650Y1002030D01*
X1746060Y1007300D02*
X1746250Y1007490D01*
X1722310Y1007300D02*
X1746060D01*
X1722120Y1007110D02*
X1722310Y1007300D01*
X1507250Y1099820D02*
X1507370Y1099700D01*
Y1077080D02*
Y1099700D01*
Y1077080D02*
X1507490Y1076960D01*
X1507010Y1054100D02*
X1507130Y1053980D01*
Y1031360D02*
Y1053980D01*
Y1031360D02*
X1507250Y1031240D01*
X1507370Y1005720D02*
X1507490Y1005840D01*
X1507370Y983100D02*
Y1005720D01*
X1507250Y982980D02*
X1507370Y983100D01*
X1477250Y982980D02*
Y986730D01*
X1472690Y991290D02*
X1477250Y986730D01*
X1472690Y991290D02*
Y1003050D01*
X1472440Y1003300D02*
X1472690Y1003050D01*
X1477010Y1050350D02*
Y1054100D01*
X1473070Y1046410D02*
X1477010Y1050350D01*
X1473070Y1034030D02*
Y1046410D01*
X1472820Y1033780D02*
X1473070Y1034030D01*
X1477250Y1096070D02*
Y1099820D01*
X1473070Y1091890D02*
X1477250Y1096070D01*
X1473070Y1079750D02*
Y1091890D01*
X1472820Y1079500D02*
X1473070Y1079750D01*
X1488820Y1033780D02*
Y1079500D01*
X1494565Y1123950D02*
X1497315D01*
X1488820Y1118205D02*
X1494565Y1123950D01*
X1488820Y1079500D02*
Y1118205D01*
X1497315Y1123950D02*
X1497505Y1123760D01*
X1517460D01*
X1517650Y1123570D01*
X1602174Y1110590D02*
X1650723D01*
X1591604Y1121160D02*
X1602174Y1110590D01*
X1586420Y1121160D02*
X1591604D01*
X1579210Y1128370D02*
X1586420Y1121160D01*
X1577460Y1128370D02*
X1579210D01*
X1569576Y1127760D02*
X1576850D01*
X1577460Y1128370D01*
X1563920Y1122104D02*
X1569576Y1127760D01*
X1563920Y1115342D02*
Y1122104D01*
X1557668Y1109090D02*
X1563920Y1115342D01*
D21*
X1553340Y1070390D02*
D03*
X1649340D02*
D03*
D22*
X1553290Y1132391D02*
D03*
X1601290D02*
D03*
X1649290D02*
D03*
X1530040Y989390D02*
D03*
Y1036391D02*
D03*
Y1086391D02*
D03*
X1672540D02*
D03*
Y1036391D02*
D03*
Y989390D02*
D03*
D23*
X1530040Y761390D02*
D03*
Y861390D02*
D03*
Y961390D02*
D03*
Y1061391D02*
D03*
X1672540Y1011391D02*
D03*
Y1111391D02*
D03*
Y911390D02*
D03*
Y811390D02*
D03*
X1615840Y761390D02*
D03*
X1586840Y961390D02*
D03*
X1640840D02*
D03*
D24*
X1706880Y1033780D02*
D03*
D25*
X1732280D02*
D03*
X1757680D02*
D03*
D26*
X1604010Y1048720D02*
D03*
X1543050Y1007110D02*
D03*
X1631950Y994410D02*
D03*
X1651000Y1002030D02*
D03*
Y1017270D02*
D03*
X1690880Y1020320D02*
D03*
X1678940Y1141730D02*
D03*
X1630680Y1143000D02*
D03*
X1617250Y984790D02*
D03*
X1525337Y1110070D02*
D03*
X1524000Y1018540D02*
D03*
X1586230Y1092200D02*
D03*
X1619904Y1153776D02*
D03*
X1612900Y1092200D02*
D03*
D27*
X1507490Y1005840D02*
D03*
X1507250Y1031240D02*
D03*
X1746855Y972820D02*
D03*
X1697990D02*
D03*
X1507490Y1076960D02*
D03*
X1722120Y972820D02*
D03*
D28*
X1500900Y1148080D02*
D03*
X1470900D02*
D03*
X1477250Y982980D02*
D03*
X1507250D02*
D03*
X1477010Y1054100D02*
D03*
X1507010D02*
D03*
X1507250Y1099820D02*
D03*
X1477250D02*
D03*
D29*
X1771650Y976030D02*
D03*
Y1002030D02*
D03*
D30*
X1472440Y1003300D02*
D03*
X1488440D02*
D03*
X1472820Y1033780D02*
D03*
X1488820D02*
D03*
Y1079500D02*
D03*
X1472820D02*
D03*
D31*
X1706880Y1130920D02*
D03*
Y1081420D02*
D03*
X1732280D02*
D03*
Y1130920D02*
D03*
D32*
X1497315Y1123950D02*
D03*
X1471315D02*
D03*
D33*
X1697990Y1007490D02*
D03*
Y991490D02*
D03*
X1722120Y1007110D02*
D03*
Y991110D02*
D03*
X1746855Y1007110D02*
D03*
Y991110D02*
D03*
D34*
X1594595Y1078610D02*
D03*
Y1062610D02*
D03*
X1576552Y1078390D02*
D03*
Y1062390D02*
D03*
X1534160Y1123570D02*
D03*
Y1139570D02*
D03*
X1557417Y1109090D02*
D03*
Y1093090D02*
D03*
X1612637Y1078610D02*
D03*
Y1062610D02*
D03*
X1630680Y1078610D02*
D03*
Y1062610D02*
D03*
D35*
X1650723Y1091590D02*
D03*
Y1110590D02*
D03*
X1577460Y1109370D02*
D03*
Y1128370D02*
D03*
M02*
